{
    "error":{
        "vehicle_number":"Please enter Valid vehicle number!",
        "serial":"Please enter Valid serial number!",
        "fuel":"Pleas select valid fuel type",
        "transmission":"Please select valid transmission type",
        "cr_year":"year of circulation not valid",
        "brand":"Please enter valid brand name!",
        "model":"Please enter valid model!",
        "car_registered":"Car Registration Successful!",
        "car_register_failed":"Car Register Failed!",
        "repair_title":"Please enter valid repair title!",
        "repair_start":"Please select valid repair starting Date!",
        "repair_state":"Please select valid repair state!",
        "repair_comment":"Please Select valid repair comment!",
        "repair_success":"Repair Recorded Successfully",
        "repair_failed":"Repair Saving Failed Please Restart and try again!",
        "repair_state_success":"Repair State has been updated !",
        "repair_state_error":"We are sorry Operation failed please restart and try again!",
        "millage_comm":"Please insert Valid Millage!",
        "vehicle_update_success":"Vehicle Information Updated!",
        "title_empty":"Title Can't be empty",
        "title_success":"Title Update Successful"


    },

    "common":{
        "activity":"Activity",
        "title":"Title",
        "millage":"Millage",
        "started":"Started",
        "completed":"Completed",
        "status":"Status",
        "repair_info":"New Repair Information",
        "repair_title":"Repair title",
        "start_date":"Star Date",
        "end_date":"End Date (Optional)",
        "comment":"Comment",
        "save_repair":"Save Repair",
        "register_car":"Register Car",
        "car_register":"Car Registration",
        "serial_number":"Serial Number",
        "fuel_type":"Fuel Type",
        "gear_box":"Gearbox Type",
        "year_of_circulation":"Year of Circulation",
        "save_car":"Save Car",
        "update_state":"Update Status",
        "status_of_repair":"Status of the Repair",
        "completed_date":"Completed Date",
        "about_the_repair":"About the Repair",
        "close":"Close",
        "my_vehicle":"My Vehicle information",
        "register":"Registration",
        "serial":"Serial",
        "fuel":"Fuel",
        "brand":"Brand",
        "model":"Model",
        "transmission":"Transmission",
        "circulation":"Circulation",
        "system_added":"System Added",
        "search_placeholder":"ex: Date, Repair type, Description",
        "all_doing":"Fuel tank repair, Break pad",
        "about_the_repair_show":"About the repair",
        "comment_on_repair":"We are cleaning the fuel tank .....",
        "select_current_state":"Select Current State",
        "automatic":"Automatic",
        "sequential":"Sequential",
        "manual":"Manual",
        "other":"Other",
        "select_fuel":"Select Fuel type",
        "petrol":"Petrol",
        "diesel":"Diesel",
        "electric":"Electric",
        "pending":"Pending",
        "in_progress":"In Progress",
        "preferences":"Preferences",
        "save_preference":"Save Preferences",
        "print_report":"Print Report",
        "title_update":"Title Update",
        "are_you_sure":"Are you sure you want to drop everything ?",
        "this_will_remove":"This will remove all repair history and there is no coming back!",
        "oops":"Oops! No Cancel",
        "drop":"Drop"

    }
}